{
    "fluentMethods": true,
    "relationships": [],
    "fields": [
        {
            "fieldName": "codeBanque",
            "fieldType": "String",
            "fieldValidateRules": [
                "required"
            ]
        },
        {
            "fieldName": "nomBanque",
            "fieldType": "String",
            "fieldValidateRules": [
                "required"
            ]
        }
    ],
    "changelogDate": "20180319093534",
    "entityTableName": "banque",
    "dto": "no",
    "pagination": "no",
    "service": "no",
    "jpaMetamodelFiltering": false
}