{
    "fluentMethods": true,
    "relationships": [
        {
            "relationshipType": "one-to-many",
            "relationshipName": "etudiant",
            "otherEntityName": "etudiant",
            "otherEntityRelationshipName": "nationalite"
        }
    ],
    "fields": [
        {
            "fieldName": "nomNationalite",
            "fieldType": "String",
            "fieldValidateRules": [
                "required"
            ]
        }
    ],
    "changelogDate": "20180319093543",
    "entityTableName": "nationalite",
    "dto": "no",
    "pagination": "no",
    "service": "no",
    "jpaMetamodelFiltering": false
}