{
    "fluentMethods": true,
    "relationships": [
        {
            "relationshipType": "one-to-many",
            "relationshipName": "formation",
            "otherEntityName": "formation",
            "otherEntityRelationshipName": "departement"
        }
    ],
    "fields": [
        {
            "fieldName": "codeStructure",
            "fieldType": "String",
            "fieldValidateRules": [
                "required"
            ]
        },
        {
            "fieldName": "nomStructure",
            "fieldType": "String",
            "fieldValidateRules": [
                "required"
            ]
        }
    ],
    "changelogDate": "20180319093538",
    "entityTableName": "structure",
    "dto": "no",
    "pagination": "no",
    "service": "no",
    "jpaMetamodelFiltering": false
}